SA-TIED
…
R code

# inspect columns, rows
ncol(att)

[1] 28

nrow(att)

[1] 84908

# inspect data
head(att)

# A tibble: 6 × 28
  sal_code   sp_code sp_name   mp_code mp_name mn_mdb_c mn_code mn_name dc_mdb_c
     <dbl>     <dbl> <chr>       <dbl> <chr>   <chr>      <dbl> <chr>   <chr>   
1  1600001 160002001 Matzikam…  160002 Matzik… WC011        160 Matzik… DC1     
2  1600002 160002001 Matzikam…  160002 Matzik… WC011        160 Matzik… DC1     
3  1600003 160002001 Matzikam…  160002 Matzik… WC011        160 Matzik… DC1     
4  1600004 160010001 Vredenda…  160010 Vreden… WC011        160 Matzik… DC1     
5  1600005 160002001 Matzikam…  160002 Matzik… WC011        160 Matzik… DC1     
6  1600006 160002001 Matzikam…  160002 Matzik… WC011        160 Matzik… DC1     
# ℹ 19 more variables: dc_code <dbl>, dc_name <chr>, pr_code <dbl>,
#   pr_name <chr>, lng_1 <dbl>, lng_2 <dbl>, lng_3 <dbl>, lng_4 <dbl>,
#   lng_5 <dbl>, lng_6 <dbl>, lng_7 <dbl>, lng_8 <dbl>, lng_9 <dbl>,
#   lng_10 <dbl>, lng_11 <dbl>, lng_12 <dbl>, lng_13 <dbl>, lng_14 <dbl>,
#   lng_15 <dbl>

# inspect column names
names(att)

 [1] "sal_code" "sp_code"  "sp_name"  "mp_code"  "mp_name"  "mn_mdb_c"
 [7] "mn_code"  "mn_name"  "dc_mdb_c" "dc_code" 
 [ reached getOption("max.print") -- omitted 18 entries ]

To access specific columns or rows in a dataframe, we can use indexing. Indexing refers to the numbering assigned to each element within a data structure, allowing us to precisely select and manipulate data.

In R, indexing begins at 1, meaning that the first element of any data structure is accessed with the index [1]. This is different from many other programming languages, such as Python or Java, where indexing typically starts at 0. For example, to access the first row of a dataframe, you would use dataframe[1, ], and to access the first column, you would use dataframe[, 1]. The comma separates the row and column indices, with the absence of a number indicating all rows or columns respectively.

R code

# index rows
att[, 1]

# A tibble: 84,908 × 1
   sal_code
      <dbl>
 1  1600001
 2  1600002
 3  1600003
 4  1600004
 5  1600005
 6  1600006
 7  1600007
 8  1600008
 9  1600009
10  1600010
# ℹ 84,898 more rows
…
